output/output_log.log
                         Chronologic VCS (TM)
            Version R-2020.12 -- Thu Oct 20 20:50:41 2022
               Copyright (c) 1991-2020 by Synopsys Inc.
                         ALL RIGHTS RESERVED

This program is proprietary and confidential information of Synopsys Inc.
and may be used and disclosed only as authorized in a license agreement
controlling such use and disclosure.

The design hasn't changed and need not be recompiled. 
If you really want to, delete file simv.daidir/.vcs.timestamp and
run VCS again.

Chronologic VCS simulator copyright 1991-2020
Contains Synopsys proprietary information.
Compiler version R-2020.12; Runtime version R-2020.12;  Oct 20 20:50 2022
NOTE: automatic random seed used: 984974416


###########################

 ##### started hidden layer @t=105

	x1=  0.000000 * w11=  0.289000 w12= -0.142700 w13=  0.135700 w14= -0.040200
	                hy1=  0.000000 hy2=  0.000000 hy3=  0.000000 hy4=  0.000000
	x2=  0.000000 * w21=  0.007700 w22= -0.001600 w23=  0.024700 w24=  0.012700
	                hy1=  0.000000 hy2=  0.000000 hy3=  0.000000 hy4=  0.000000
	x3=  0.001000 * w31= -0.000300 w32= -0.005500 w33=  0.000900 w34= -0.000900
	                hy1= -0.000000 hy2= -0.000006 hy3=  0.000001 hy4= -0.000001
	x4= -0.007600 * w41= -0.843000 w42=  0.045500 w43=  0.048700 w44=  0.100000
	                hy1=  0.006407 hy2= -0.000351 hy3= -0.000369 hy4= -0.000761
	x5= -0.041900 * w51= -0.305200 w52=  0.068000 w53= -0.047200 w54=  0.398300
	                hy1=  0.019194 hy2= -0.003200 hy3=  0.001608 hy4= -0.017450
	x6= -0.041300 * w61= -0.397700 w62=  0.472200 w63= -0.312500 w64= -0.018400
	                hy1=  0.035619 hy2= -0.022702 hy3=  0.014515 hy4= -0.016690

	After ReLU      hy1=  0.035619 hy2=  0.000000 hy3=  0.014515 hy4= -0.016690

 ##### hidden layer done_x70, started output layer @t=285

	x1=  0.035619 * w11= -0.886100 w12= -0.354500 w13=  1.347100
	                y1_x70 = -0.031562  y2_x70= -0.012627  y3_x70=  0.047983
	x2=  0.000000 * w21= -1.811800 w22=  0.608500 w23=  3.505400
	                y1_x70 = -0.031562  y2_x70= -0.012627  y3_x70=  0.047983
	x3=  0.014515 * w31= -1.520500 w32=  1.960700 w33= -2.138600
	                y1_x70 = -0.053632  y2_x70=  0.015832  y3_x70=  0.016942
	x4= -0.016690 * w41=  2.700800 w42=  1.113900 w43= -1.062300
	                y1_x70 = -0.098708  y2_x70= -0.002759  y3_x70=  0.034671

	After ReLU      y1_x70=  0.000000 y2_x70=  0.000000 y3_x70=  0.034671

 ##### Final NN output => y1_x70:0.000000, y2_x70:0.000000, y3_x70:0.034671 (took 58 clocks to execute)

 ##### output layer done_x70 @t=405

---------------------------




###########################

 ##### started hidden layer @t=415

	x1=  0.000000 * w11=  0.289000 w12= -0.142700 w13=  0.135700 w14= -0.040200
	                hy1=  0.000000 hy2=  0.000000 hy3=  0.000000 hy4=  0.000000
	x2=  0.000000 * w21=  0.007700 w22= -0.001600 w23=  0.024700 w24=  0.012700
	                hy1=  0.000000 hy2=  0.000000 hy3=  0.000000 hy4=  0.000000
	x3=  0.000600 * w31= -0.000300 w32= -0.005500 w33=  0.000900 w34= -0.000900
	                hy1= -0.000000 hy2= -0.000003 hy3=  0.000001 hy4= -0.000001
	x4= -0.018900 * w41= -0.843000 w42=  0.045500 w43=  0.048700 w44=  0.100000
	                hy1=  0.015933 hy2= -0.000863 hy3= -0.000920 hy4= -0.001891
	x5=  0.169300 * w51= -0.305200 w52=  0.068000 w53= -0.047200 w54=  0.398300
	                hy1= -0.035738 hy2=  0.010649 hy3= -0.008911 hy4=  0.065542
	x6=  0.829500 * w61= -0.397700 w62=  0.472200 w63= -0.312500 w64= -0.018400
	                hy1= -0.365630 hy2=  0.402339 hy3= -0.268130 hy4=  0.050279

	After ReLU      hy1=  0.000000 hy2=  0.402339 hy3=  0.000000 hy4=  0.000000

 ##### hidden layer done_x70, started output layer @t=595

	x1=  0.000000 * w11= -0.886100 w12= -0.354500 w13=  1.347100
	                y1_x70 =  0.000000  y2_x70=  0.000000  y3_x70=  0.000000
	x2=  0.402339 * w21= -1.811800 w22=  0.608500 w23=  3.505400
	                y1_x70 = -0.728958  y2_x70=  0.244823  y3_x70=  1.410359
	x3=  0.000000 * w31= -1.520500 w32=  1.960700 w33= -2.138600
	                y1_x70 = -0.728958  y2_x70=  0.244823  y3_x70=  1.410359
	x4=  0.000000 * w41=  2.700800 w42=  1.113900 w43= -1.062300
	                y1_x70 = -0.728958  y2_x70=  0.244823  y3_x70=  1.410359

	After ReLU      y1_x70=  0.000000 y2_x70=  0.244823 y3_x70=  1.410359

 ##### Final NN output => y1_x70:0.000000, y2_x70:0.244823, y3_x70:1.410359 (took 58 clocks to execute)

 ##### output layer done_x70 @t=715

---------------------------




###########################

 ##### started hidden layer @t=725

	x1=  0.000000 * w11=  0.289000 w12= -0.142700 w13=  0.135700 w14= -0.040200
	                hy1=  0.000000 hy2=  0.000000 hy3=  0.000000 hy4=  0.000000
	x2=  0.000000 * w21=  0.007700 w22= -0.001600 w23=  0.024700 w24=  0.012700
	                hy1=  0.000000 hy2=  0.000000 hy3=  0.000000 hy4=  0.000000
	x3=  0.000700 * w31= -0.000300 w32= -0.005500 w33=  0.000900 w34= -0.000900
	                hy1= -0.000000 hy2= -0.000004 hy3=  0.000001 hy4= -0.000001
	x4= -0.004900 * w41= -0.843000 w42=  0.045500 w43=  0.048700 w44=  0.100000
	                hy1=  0.004130 hy2= -0.000227 hy3= -0.000238 hy4= -0.000491
	x5= -0.032400 * w51= -0.305200 w52=  0.068000 w53= -0.047200 w54=  0.398300
	                hy1=  0.014019 hy2= -0.002430 hy3=  0.001291 hy4= -0.013396
	x6=  0.021900 * w61= -0.397700 w62=  0.472200 w63= -0.312500 w64= -0.018400
	                hy1=  0.005309 hy2=  0.007911 hy3= -0.005552 hy4= -0.013799

	After ReLU      hy1=  0.005309 hy2=  0.007911 hy3=  0.000000 hy4=  0.000000

 ##### hidden layer done_x70, started output layer @t=905

	x1=  0.005309 * w11= -0.886100 w12= -0.354500 w13=  1.347100
	                y1_x70 = -0.004705  y2_x70= -0.001882  y3_x70=  0.007152
	x2=  0.007911 * w21= -1.811800 w22=  0.608500 w23=  3.505400
	                y1_x70 = -0.019038  y2_x70=  0.002932  y3_x70=  0.034884
	x3=  0.000000 * w31= -1.520500 w32=  1.960700 w33= -2.138600
	                y1_x70 = -0.019038  y2_x70=  0.002932  y3_x70=  0.034884
	x4=  0.000000 * w41=  2.700800 w42=  1.113900 w43= -1.062300
	                y1_x70 = -0.019038  y2_x70=  0.002932  y3_x70=  0.034884

	After ReLU      y1_x70=  0.000000 y2_x70=  0.002932 y3_x70=  0.034884

 ##### Final NN output => y1_x70:0.000000, y2_x70:0.002932, y3_x70:0.034884 (took 58 clocks to execute)

 ##### output layer done_x70 @t=1025

---------------------------




###########################

 ##### started hidden layer @t=1035

	x1=  0.000000 * w11=  0.289000 w12= -0.142700 w13=  0.135700 w14= -0.040200
	                hy1=  0.000000 hy2=  0.000000 hy3=  0.000000 hy4=  0.000000
	x2=  0.000000 * w21=  0.007700 w22= -0.001600 w23=  0.024700 w24=  0.012700
	                hy1=  0.000000 hy2=  0.000000 hy3=  0.000000 hy4=  0.000000
	x3=  0.000000 * w31= -0.000300 w32= -0.005500 w33=  0.000900 w34= -0.000900
	                hy1=  0.000000 hy2=  0.000000 hy3=  0.000000 hy4=  0.000000
	x4=  0.000000 * w41= -0.843000 w42=  0.045500 w43=  0.048700 w44=  0.100000
	                hy1=  0.000000 hy2=  0.000000 hy3=  0.000000 hy4=  0.000000
	x5=  0.000000 * w51= -0.305200 w52=  0.068000 w53= -0.047200 w54=  0.398300
	                hy1=  0.000000 hy2=  0.000000 hy3=  0.000000 hy4=  0.000000
	x6=  0.000000 * w61= -0.397700 w62=  0.472200 w63= -0.312500 w64= -0.018400
	                hy1=  0.000000 hy2=  0.000000 hy3=  0.000000 hy4=  0.000000

	After ReLU      hy1=  0.000000 hy2=  0.000000 hy3=  0.000000 hy4=  0.000000

 ##### hidden layer done_x70, started output layer @t=1215

	x1=  0.000000 * w11= -0.886100 w12= -0.354500 w13=  1.347100
	                y1_x70 = -0.000000  y2_x70= -0.000000  y3_x70=  0.000000
	x2=  0.000000 * w21= -1.811800 w22=  0.608500 w23=  3.505400
	                y1_x70 = -0.000000  y2_x70=  0.000000  y3_x70=  0.000000
	x3=  0.000000 * w31= -1.520500 w32=  1.960700 w33= -2.138600
	                y1_x70 = -0.000000  y2_x70=  0.000000  y3_x70=  0.000000
	x4=  0.000000 * w41=  2.700800 w42=  1.113900 w43= -1.062300
	                y1_x70 = -0.000000  y2_x70=  0.000000  y3_x70=  0.000000

	After ReLU      y1_x70=  0.000000 y2_x70=  0.000000 y3_x70=  0.000000

 ##### Final NN output => y1_x70:0.000000, y2_x70:0.000000, y3_x70:0.000000 (took 58 clocks to execute)

 ##### output layer done_x70 @t=1335

---------------------------




###########################

 ##### started hidden layer @t=1345

	x1=  0.000000 * w11=  0.289000 w12= -0.142700 w13=  0.135700 w14= -0.040200
	                hy1=  0.000000 hy2=  0.000000 hy3=  0.000000 hy4=  0.000000
	x2=  0.000000 * w21=  0.007700 w22= -0.001600 w23=  0.024700 w24=  0.012700
	                hy1=  0.000000 hy2=  0.000000 hy3=  0.000000 hy4=  0.000000
	x3=  0.000000 * w31= -0.000300 w32= -0.005500 w33=  0.000900 w34= -0.000900
	                hy1=  0.000000 hy2=  0.000000 hy3=  0.000000 hy4=  0.000000
	x4=  0.000000 * w41= -0.843000 w42=  0.045500 w43=  0.048700 w44=  0.100000
	                hy1=  0.000000 hy2=  0.000000 hy3=  0.000000 hy4=  0.000000
	x5=  0.000000 * w51= -0.305200 w52=  0.068000 w53= -0.047200 w54=  0.398300
	                hy1=  0.000000 hy2=  0.000000 hy3=  0.000000 hy4=  0.000000
	x6=  0.000000 * w61= -0.397700 w62=  0.472200 w63= -0.312500 w64= -0.018400
	                hy1=  0.000000 hy2=  0.000000 hy3=  0.000000 hy4=  0.000000

	After ReLU      hy1=  0.000000 hy2=  0.000000 hy3=  0.000000 hy4=  0.000000

 ##### hidden layer done_x70, started output layer @t=1525

	x1=  0.000000 * w11= -0.886100 w12= -0.354500 w13=  1.347100
	                y1_x70 = -0.000000  y2_x70= -0.000000  y3_x70=  0.000000
	x2=  0.000000 * w21= -1.811800 w22=  0.608500 w23=  3.505400
	                y1_x70 = -0.000000  y2_x70=  0.000000  y3_x70=  0.000000
	x3=  0.000000 * w31= -1.520500 w32=  1.960700 w33= -2.138600
	                y1_x70 = -0.000000  y2_x70=  0.000000  y3_x70=  0.000000
	x4=  0.000000 * w41=  2.700800 w42=  1.113900 w43= -1.062300
	                y1_x70 = -0.000000  y2_x70=  0.000000  y3_x70=  0.000000

	After ReLU      y1_x70=  0.000000 y2_x70=  0.000000 y3_x70=  0.000000

 ##### Final NN output => y1_x70:0.000000, y2_x70:0.000000, y3_x70:0.000000 (took 58 clocks to execute)

 ##### output layer done_x70 @t=1645

---------------------------




###########################

 ##### started hidden layer @t=1655

	x1=  0.000000 * w11=  0.289000 w12= -0.142700 w13=  0.135700 w14= -0.040200
	                hy1=  0.000000 hy2=  0.000000 hy3=  0.000000 hy4=  0.000000
	x2=  0.000000 * w21=  0.007700 w22= -0.001600 w23=  0.024700 w24=  0.012700
	                hy1=  0.000000 hy2=  0.000000 hy3=  0.000000 hy4=  0.000000
	x3=  0.000000 * w31= -0.000300 w32= -0.005500 w33=  0.000900 w34= -0.000900
	                hy1=  0.000000 hy2=  0.000000 hy3=  0.000000 hy4=  0.000000
	x4=  0.000000 * w41= -0.843000 w42=  0.045500 w43=  0.048700 w44=  0.100000
	                hy1=  0.000000 hy2=  0.000000 hy3=  0.000000 hy4=  0.000000
	x5=  0.000000 * w51= -0.305200 w52=  0.068000 w53= -0.047200 w54=  0.398300
	                hy1=  0.000000 hy2=  0.000000 hy3=  0.000000 hy4=  0.000000
	x6= -0.000000 * w61= -0.397700 w62=  0.472200 w63= -0.312500 w64= -0.018400
	                hy1=  0.000000 hy2=  0.000000 hy3=  0.000000 hy4=  0.000000

	After ReLU      hy1=  0.000000 hy2=  0.000000 hy3=  0.000000 hy4=  0.000000

 ##### hidden layer done_x70, started output layer @t=1835

	x1=  0.000000 * w11= -0.886100 w12= -0.354500 w13=  1.347100
	                y1_x70 = -0.000000  y2_x70= -0.000000  y3_x70=  0.000000
	x2=  0.000000 * w21= -1.811800 w22=  0.608500 w23=  3.505400
	                y1_x70 = -0.000000  y2_x70=  0.000000  y3_x70=  0.000000
	x3=  0.000000 * w31= -1.520500 w32=  1.960700 w33= -2.138600
	                y1_x70 = -0.000000  y2_x70=  0.000000  y3_x70=  0.000000
	x4=  0.000000 * w41=  2.700800 w42=  1.113900 w43= -1.062300
	                y1_x70 = -0.000000  y2_x70=  0.000000  y3_x70=  0.000000

	After ReLU      y1_x70=  0.000000 y2_x70=  0.000000 y3_x70=  0.000000

 ##### Final NN output => y1_x70:0.000000, y2_x70:0.000000, y3_x70:0.000000 (took 58 clocks to execute)

 ##### output layer done_x70 @t=1955

---------------------------




###########################

 ##### started hidden layer @t=1965

	x1=  0.000000 * w11=  0.289000 w12= -0.142700 w13=  0.135700 w14= -0.040200
	                hy1=  0.000000 hy2=  0.000000 hy3=  0.000000 hy4=  0.000000
	x2=  0.000000 * w21=  0.007700 w22= -0.001600 w23=  0.024700 w24=  0.012700
	                hy1=  0.000000 hy2=  0.000000 hy3=  0.000000 hy4=  0.000000
	x3=  0.000000 * w31= -0.000300 w32= -0.005500 w33=  0.000900 w34= -0.000900
	                hy1=  0.000000 hy2=  0.000000 hy3=  0.000000 hy4=  0.000000
	x4=  0.000000 * w41= -0.843000 w42=  0.045500 w43=  0.048700 w44=  0.100000
	                hy1=  0.000000 hy2=  0.000000 hy3=  0.000000 hy4=  0.000000
	x5=  0.000000 * w51= -0.305200 w52=  0.068000 w53= -0.047200 w54=  0.398300
	                hy1=  0.000000 hy2=  0.000000 hy3=  0.000000 hy4=  0.000000
	x6=  0.000000 * w61= -0.397700 w62=  0.472200 w63= -0.312500 w64= -0.018400
	                hy1=  0.000000 hy2=  0.000000 hy3=  0.000000 hy4=  0.000000

	After ReLU      hy1=  0.000000 hy2=  0.000000 hy3=  0.000000 hy4=  0.000000

 ##### hidden layer done_x70, started output layer @t=2145

	x1=  0.000000 * w11= -0.886100 w12= -0.354500 w13=  1.347100
	                y1_x70 = -0.000000  y2_x70= -0.000000  y3_x70=  0.000000
	x2=  0.000000 * w21= -1.811800 w22=  0.608500 w23=  3.505400
	                y1_x70 = -0.000000  y2_x70=  0.000000  y3_x70=  0.000000
	x3=  0.000000 * w31= -1.520500 w32=  1.960700 w33= -2.138600
	                y1_x70 = -0.000000  y2_x70=  0.000000  y3_x70=  0.000000
	x4=  0.000000 * w41=  2.700800 w42=  1.113900 w43= -1.062300
	                y1_x70 = -0.000000  y2_x70=  0.000000  y3_x70=  0.000000

	After ReLU      y1_x70=  0.000000 y2_x70=  0.000000 y3_x70=  0.000000

 ##### Final NN output => y1_x70:0.000000, y2_x70:0.000000, y3_x70:0.000000 (took 58 clocks to execute)

 ##### output layer done_x70 @t=2265

---------------------------




###########################

 ##### started hidden layer @t=2275

	x1=  0.000000 * w11=  0.289000 w12= -0.142700 w13=  0.135700 w14= -0.040200
	                hy1=  0.000000 hy2=  0.000000 hy3=  0.000000 hy4=  0.000000
	x2=  0.000000 * w21=  0.007700 w22= -0.001600 w23=  0.024700 w24=  0.012700
	                hy1=  0.000000 hy2=  0.000000 hy3=  0.000000 hy4=  0.000000
	x3=  0.000000 * w31= -0.000300 w32= -0.005500 w33=  0.000900 w34= -0.000900
	                hy1=  0.000000 hy2=  0.000000 hy3=  0.000000 hy4=  0.000000
	x4=  0.000000 * w41= -0.843000 w42=  0.045500 w43=  0.048700 w44=  0.100000
	                hy1=  0.000000 hy2=  0.000000 hy3=  0.000000 hy4=  0.000000
	x5=  0.000000 * w51= -0.305200 w52=  0.068000 w53= -0.047200 w54=  0.398300
	                hy1=  0.000000 hy2=  0.000000 hy3=  0.000000 hy4=  0.000000
	x6=  0.000000 * w61= -0.397700 w62=  0.472200 w63= -0.312500 w64= -0.018400
	                hy1=  0.000000 hy2=  0.000000 hy3=  0.000000 hy4=  0.000000

	After ReLU      hy1=  0.000000 hy2=  0.000000 hy3=  0.000000 hy4=  0.000000

 ##### hidden layer done_x70, started output layer @t=2455

	x1=  0.000000 * w11= -0.886100 w12= -0.354500 w13=  1.347100
	                y1_x70 = -0.000000  y2_x70= -0.000000  y3_x70=  0.000000
	x2=  0.000000 * w21= -1.811800 w22=  0.608500 w23=  3.505400
	                y1_x70 = -0.000000  y2_x70=  0.000000  y3_x70=  0.000000
	x3=  0.000000 * w31= -1.520500 w32=  1.960700 w33= -2.138600
	                y1_x70 = -0.000000  y2_x70=  0.000000  y3_x70=  0.000000
	x4=  0.000000 * w41=  2.700800 w42=  1.113900 w43= -1.062300
	                y1_x70 = -0.000000  y2_x70=  0.000000  y3_x70=  0.000000

	After ReLU      y1_x70=  0.000000 y2_x70=  0.000000 y3_x70=  0.000000

 ##### Final NN output => y1_x70:0.000000, y2_x70:0.000000, y3_x70:0.000000 (took 58 clocks to execute)

 ##### output layer done_x70 @t=2575

---------------------------




###########################

 ##### started hidden layer @t=2585

	x1=  0.000000 * w11=  0.289000 w12= -0.142700 w13=  0.135700 w14= -0.040200
	                hy1=  0.000000 hy2=  0.000000 hy3=  0.000000 hy4=  0.000000
	x2=  0.000000 * w21=  0.007700 w22= -0.001600 w23=  0.024700 w24=  0.012700
	                hy1=  0.000000 hy2=  0.000000 hy3=  0.000000 hy4=  0.000000
	x3=  0.000000 * w31= -0.000300 w32= -0.005500 w33=  0.000900 w34= -0.000900
	                hy1=  0.000000 hy2=  0.000000 hy3=  0.000000 hy4=  0.000000
	x4=  0.000000 * w41= -0.843000 w42=  0.045500 w43=  0.048700 w44=  0.100000
	                hy1=  0.000000 hy2=  0.000000 hy3=  0.000000 hy4=  0.000000
	x5= -0.002500 * w51= -0.305200 w52=  0.068000 w53= -0.047200 w54=  0.398300
	                hy1=  0.000763 hy2= -0.000170 hy3=  0.000118 hy4= -0.000996
	x6=  0.018600 * w61= -0.397700 w62=  0.472200 w63= -0.312500 w64= -0.018400
	                hy1= -0.006634 hy2=  0.008613 hy3= -0.005694 hy4= -0.001338

	After ReLU      hy1=  0.000000 hy2=  0.008613 hy3=  0.000000 hy4=  0.000000

 ##### hidden layer done_x70, started output layer @t=2765

	x1=  0.000000 * w11= -0.886100 w12= -0.354500 w13=  1.347100
	                y1_x70 =  0.000000  y2_x70=  0.000000  y3_x70=  0.000000
	x2=  0.008613 * w21= -1.811800 w22=  0.608500 w23=  3.505400
	                y1_x70 = -0.015605  y2_x70=  0.005241  y3_x70=  0.030192
	x3=  0.000000 * w31= -1.520500 w32=  1.960700 w33= -2.138600
	                y1_x70 = -0.015605  y2_x70=  0.005241  y3_x70=  0.030192
	x4=  0.000000 * w41=  2.700800 w42=  1.113900 w43= -1.062300
	                y1_x70 = -0.015605  y2_x70=  0.005241  y3_x70=  0.030192

	After ReLU      y1_x70=  0.000000 y2_x70=  0.005241 y3_x70=  0.030192

 ##### Final NN output => y1_x70:0.000000, y2_x70:0.005241, y3_x70:0.030192 (took 58 clocks to execute)

 ##### output layer done_x70 @t=2885

---------------------------




###########################

 ##### started hidden layer @t=2895

	x1=  0.000000 * w11=  0.289000 w12= -0.142700 w13=  0.135700 w14= -0.040200
	                hy1=  0.000000 hy2=  0.000000 hy3=  0.000000 hy4=  0.000000
	x2=  0.000000 * w21=  0.007700 w22= -0.001600 w23=  0.024700 w24=  0.012700
	                hy1=  0.000000 hy2=  0.000000 hy3=  0.000000 hy4=  0.000000
	x3=  0.000000 * w31= -0.000300 w32= -0.005500 w33=  0.000900 w34= -0.000900
	                hy1=  0.000000 hy2=  0.000000 hy3=  0.000000 hy4=  0.000000
	x4= -0.000400 * w41= -0.843000 w42=  0.045500 w43=  0.048700 w44=  0.100000
	                hy1=  0.000337 hy2= -0.000018 hy3= -0.000019 hy4= -0.000040
	x5= -0.009100 * w51= -0.305200 w52=  0.068000 w53= -0.047200 w54=  0.398300
	                hy1=  0.003115 hy2= -0.000637 hy3=  0.000410 hy4= -0.003665
	x6=  0.115700 * w61= -0.397700 w62=  0.472200 w63= -0.312500 w64= -0.018400
	                hy1= -0.042899 hy2=  0.053997 hy3= -0.035746 hy4= -0.005793

	After ReLU      hy1=  0.000000 hy2=  0.053997 hy3=  0.000000 hy4=  0.000000

 ##### hidden layer done_x70, started output layer @t=3075

	x1=  0.000000 * w11= -0.886100 w12= -0.354500 w13=  1.347100
	                y1_x70 =  0.000000  y2_x70=  0.000000  y3_x70=  0.000000
	x2=  0.053997 * w21= -1.811800 w22=  0.608500 w23=  3.505400
	                y1_x70 = -0.097831  y2_x70=  0.032857  y3_x70=  0.189279
	x3=  0.000000 * w31= -1.520500 w32=  1.960700 w33= -2.138600
	                y1_x70 = -0.097831  y2_x70=  0.032857  y3_x70=  0.189279
	x4=  0.000000 * w41=  2.700800 w42=  1.113900 w43= -1.062300
	                y1_x70 = -0.097831  y2_x70=  0.032857  y3_x70=  0.189279

	After ReLU      y1_x70=  0.000000 y2_x70=  0.032857 y3_x70=  0.189279

 ##### Final NN output => y1_x70:0.000000, y2_x70:0.032857, y3_x70:0.189279 (took 58 clocks to execute)

 ##### output layer done_x70 @t=3195

---------------------------




###########################

 ##### started hidden layer @t=3205

	x1=  0.000000 * w11=  0.289000 w12= -0.142700 w13=  0.135700 w14= -0.040200
	                hy1=  0.000000 hy2=  0.000000 hy3=  0.000000 hy4=  0.000000
	x2=  0.000000 * w21=  0.007700 w22= -0.001600 w23=  0.024700 w24=  0.012700
	                hy1=  0.000000 hy2=  0.000000 hy3=  0.000000 hy4=  0.000000
	x3= -0.000600 * w31= -0.000300 w32= -0.005500 w33=  0.000900 w34= -0.000900
	                hy1=  0.000000 hy2=  0.000003 hy3= -0.000001 hy4=  0.000001
	x4= -0.017600 * w41= -0.843000 w42=  0.045500 w43=  0.048700 w44=  0.100000
	                hy1=  0.014837 hy2= -0.000797 hy3= -0.000858 hy4= -0.001759
	x5=  0.408300 * w51= -0.305200 w52=  0.068000 w53= -0.047200 w54=  0.398300
	                hy1= -0.109776 hy2=  0.026967 hy3= -0.020129 hy4=  0.160866
	x6=  0.312900 * w61= -0.397700 w62=  0.472200 w63= -0.312500 w64= -0.018400
	                hy1= -0.234217 hy2=  0.174718 hy3= -0.117911 hy4=  0.155109

	After ReLU      hy1=  0.000000 hy2=  0.174718 hy3=  0.000000 hy4=  0.000000

 ##### hidden layer done_x70, started output layer @t=3385

	x1=  0.000000 * w11= -0.886100 w12= -0.354500 w13=  1.347100
	                y1_x70 =  0.000000  y2_x70=  0.000000  y3_x70=  0.000000
	x2=  0.174718 * w21= -1.811800 w22=  0.608500 w23=  3.505400
	                y1_x70 = -0.316555  y2_x70=  0.106316  y3_x70=  0.612457
	x3=  0.000000 * w31= -1.520500 w32=  1.960700 w33= -2.138600
	                y1_x70 = -0.316555  y2_x70=  0.106316  y3_x70=  0.612457
	x4=  0.000000 * w41=  2.700800 w42=  1.113900 w43= -1.062300
	                y1_x70 = -0.316555  y2_x70=  0.106316  y3_x70=  0.612457

	After ReLU      y1_x70=  0.000000 y2_x70=  0.106316 y3_x70=  0.612457

 ##### Final NN output => y1_x70:0.000000, y2_x70:0.106316, y3_x70:0.612457 (took 58 clocks to execute)

 ##### output layer done_x70 @t=3505

---------------------------




###########################

 ##### started hidden layer @t=3515

	x1=  0.000000 * w11=  0.289000 w12= -0.142700 w13=  0.135700 w14= -0.040200
	                hy1=  0.000000 hy2=  0.000000 hy3=  0.000000 hy4=  0.000000
	x2=  0.000000 * w21=  0.007700 w22= -0.001600 w23=  0.024700 w24=  0.012700
	                hy1=  0.000000 hy2=  0.000000 hy3=  0.000000 hy4=  0.000000
	x3=  0.000000 * w31= -0.000300 w32= -0.005500 w33=  0.000900 w34= -0.000900
	                hy1=  0.000000 hy2=  0.000000 hy3=  0.000000 hy4=  0.000000
	x4=  0.000000 * w41= -0.843000 w42=  0.045500 w43=  0.048700 w44=  0.100000
	                hy1=  0.000000 hy2=  0.000000 hy3=  0.000000 hy4=  0.000000
	x5=  0.000000 * w51= -0.305200 w52=  0.068000 w53= -0.047200 w54=  0.398300
	                hy1=  0.000000 hy2=  0.000000 hy3=  0.000000 hy4=  0.000000
	x6=  0.000000 * w61= -0.397700 w62=  0.472200 w63= -0.312500 w64= -0.018400
	                hy1=  0.000000 hy2=  0.000000 hy3=  0.000000 hy4=  0.000000

	After ReLU      hy1=  0.000000 hy2=  0.000000 hy3=  0.000000 hy4=  0.000000

 ##### hidden layer done_x70, started output layer @t=3695

	x1=  0.000000 * w11= -0.886100 w12= -0.354500 w13=  1.347100
	                y1_x70 = -0.000000  y2_x70= -0.000000  y3_x70=  0.000000
	x2=  0.000000 * w21= -1.811800 w22=  0.608500 w23=  3.505400
	                y1_x70 = -0.000000  y2_x70=  0.000000  y3_x70=  0.000000
	x3=  0.000000 * w31= -1.520500 w32=  1.960700 w33= -2.138600
	                y1_x70 = -0.000000  y2_x70=  0.000000  y3_x70=  0.000000
	x4=  0.000000 * w41=  2.700800 w42=  1.113900 w43= -1.062300
	                y1_x70 = -0.000000  y2_x70=  0.000000  y3_x70=  0.000000

	After ReLU      y1_x70=  0.000000 y2_x70=  0.000000 y3_x70=  0.000000

 ##### Final NN output => y1_x70:0.000000, y2_x70:0.000000, y3_x70:0.000000 (took 58 clocks to execute)

 ##### output layer done_x70 @t=3815

---------------------------




###########################

 ##### started hidden layer @t=3825

	x1=  0.000000 * w11=  0.289000 w12= -0.142700 w13=  0.135700 w14= -0.040200
	                hy1=  0.000000 hy2=  0.000000 hy3=  0.000000 hy4=  0.000000
	x2=  0.000000 * w21=  0.007700 w22= -0.001600 w23=  0.024700 w24=  0.012700
	                hy1=  0.000000 hy2=  0.000000 hy3=  0.000000 hy4=  0.000000
	x3=  0.000000 * w31= -0.000300 w32= -0.005500 w33=  0.000900 w34= -0.000900
	                hy1=  0.000000 hy2=  0.000000 hy3=  0.000000 hy4=  0.000000
	x4=  0.000000 * w41= -0.843000 w42=  0.045500 w43=  0.048700 w44=  0.100000
	                hy1=  0.000000 hy2=  0.000000 hy3=  0.000000 hy4=  0.000000
	x5=  0.000000 * w51= -0.305200 w52=  0.068000 w53= -0.047200 w54=  0.398300
	                hy1=  0.000000 hy2=  0.000000 hy3=  0.000000 hy4=  0.000000
	x6=  0.000000 * w61= -0.397700 w62=  0.472200 w63= -0.312500 w64= -0.018400
	                hy1=  0.000000 hy2=  0.000000 hy3=  0.000000 hy4=  0.000000

	After ReLU      hy1=  0.000000 hy2=  0.000000 hy3=  0.000000 hy4=  0.000000

 ##### hidden layer done_x70, started output layer @t=4005

	x1=  0.000000 * w11= -0.886100 w12= -0.354500 w13=  1.347100
	                y1_x70 = -0.000000  y2_x70= -0.000000  y3_x70=  0.000000
	x2=  0.000000 * w21= -1.811800 w22=  0.608500 w23=  3.505400
	                y1_x70 = -0.000000  y2_x70=  0.000000  y3_x70=  0.000000
	x3=  0.000000 * w31= -1.520500 w32=  1.960700 w33= -2.138600
	                y1_x70 = -0.000000  y2_x70=  0.000000  y3_x70=  0.000000
	x4=  0.000000 * w41=  2.700800 w42=  1.113900 w43= -1.062300
	                y1_x70 = -0.000000  y2_x70=  0.000000  y3_x70=  0.000000

	After ReLU      y1_x70=  0.000000 y2_x70=  0.000000 y3_x70=  0.000000

 ##### Final NN output => y1_x70:0.000000, y2_x70:0.000000, y3_x70:0.000000 (took 58 clocks to execute)

 ##### output layer done_x70 @t=4125

---------------------------




###########################

 ##### started hidden layer @t=4135

	x1=  0.000000 * w11=  0.289000 w12= -0.142700 w13=  0.135700 w14= -0.040200
	                hy1=  0.000000 hy2=  0.000000 hy3=  0.000000 hy4=  0.000000
	x2=  0.000000 * w21=  0.007700 w22= -0.001600 w23=  0.024700 w24=  0.012700
	                hy1=  0.000000 hy2=  0.000000 hy3=  0.000000 hy4=  0.000000
	x3=  0.000000 * w31= -0.000300 w32= -0.005500 w33=  0.000900 w34= -0.000900
	                hy1=  0.000000 hy2=  0.000000 hy3=  0.000000 hy4=  0.000000
	x4= -0.001300 * w41= -0.843000 w42=  0.045500 w43=  0.048700 w44=  0.100000
	                hy1=  0.001096 hy2= -0.000059 hy3= -0.000063 hy4= -0.000130
	x5= -0.016400 * w51= -0.305200 w52=  0.068000 w53= -0.047200 w54=  0.398300
	                hy1=  0.006101 hy2= -0.001174 hy3=  0.000711 hy4= -0.006662
	x6=  0.404200 * w61= -0.397700 w62=  0.472200 w63= -0.312500 w64= -0.018400
	                hy1= -0.154649 hy2=  0.189689 hy3= -0.125602 hy4= -0.014099

	After ReLU      hy1=  0.000000 hy2=  0.189689 hy3=  0.000000 hy4=  0.000000

 ##### hidden layer done_x70, started output layer @t=4315

	x1=  0.000000 * w11= -0.886100 w12= -0.354500 w13=  1.347100
	                y1_x70 =  0.000000  y2_x70=  0.000000  y3_x70=  0.000000
	x2=  0.189689 * w21= -1.811800 w22=  0.608500 w23=  3.505400
	                y1_x70 = -0.343678  y2_x70=  0.115426  y3_x70=  0.664935
	x3=  0.000000 * w31= -1.520500 w32=  1.960700 w33= -2.138600
	                y1_x70 = -0.343678  y2_x70=  0.115426  y3_x70=  0.664935
	x4=  0.000000 * w41=  2.700800 w42=  1.113900 w43= -1.062300
	                y1_x70 = -0.343678  y2_x70=  0.115426  y3_x70=  0.664935

	After ReLU      y1_x70=  0.000000 y2_x70=  0.115426 y3_x70=  0.664935

